<?xml version="1.0" encoding="UTF-8"?>
<glyph name="uni049B" format="1">
  <advance width="581"/>
  <outline>
    <contour>
      <point x="368" y="-140" type="line" name=""/>
      <point x="492" y="-140" type="line"/>
      <point x="543" y="112" type="line"/>
      <point x="453" y="112" type="line"/>
      <point x="414" y="217" type="line" smooth="yes"/>
      <point x="403" y="247"/>
      <point x="387" y="260"/>
      <point x="365" y="266" type="curve"/>
      <point x="366" y="272" type="line"/>
      <point x="392" y="276"/>
      <point x="411" y="286"/>
      <point x="431" y="314" type="curve" smooth="yes"/>
      <point x="501" y="413" type="line"/>
      <point x="551" y="413" type="line"/>
      <point x="574" y="525" type="line"/>
      <point x="509" y="525" type="line" smooth="yes"/>
      <point x="452" y="525"/>
      <point x="426" y="510"/>
      <point x="395" y="467" type="curve" smooth="yes"/>
      <point x="293" y="323" type="line"/>
      <point x="218" y="323" type="line"/>
      <point x="259" y="525" type="line"/>
      <point x="119" y="525" type="line"/>
      <point x="14" y="0" type="line"/>
      <point x="154" y="0" type="line"/>
      <point x="196" y="211" type="line"/>
      <point x="271" y="211" type="line"/>
      <point x="320" y="79" type="line"/>
      <point x="335" y="36"/>
      <point x="360" y="10"/>
      <point x="396" y="2" type="curve"/>
    </contour>
  </outline>
</glyph>
