<?xml version="1.0" encoding="UTF-8"?>
<glyph name="uni04E3" format="1">
  <advance width="582"/>
  <outline>
    <component base="u"/>
    <component base="macron" xOffset="43"/>
    <contour>
      <point x="250.0" y="0.0" type="move" name="bottom"/>
    </contour>
    <contour>
      <point x="514.0" y="0.0" type="move" name="bottomright"/>
    </contour>
  </outline>
  <lib>
    <dict>
      <key>com.typemytype.robofont.mark</key>
      <array>
        <real>0.6</real>
        <real>0.986</real>
        <real>1.0</real>
        <real>1.0</real>
      </array>
    </dict>
  </lib>
</glyph>
