<?xml version="1.0" encoding="UTF-8"?>
<glyph name="breve.cyrl_case" format="1">
  <advance width="600"/>
  <outline>
    <contour>
      <point x="300" y="766" type="curve" smooth="yes" name=""/>
      <point x="372" y="766"/>
      <point x="412" y="797"/>
      <point x="437" y="844" type="curve" smooth="yes"/>
      <point x="457" y="882" type="line"/>
      <point x="387" y="913" type="line"/>
      <point x="352" y="831" type="line"/>
      <point x="336" y="827"/>
      <point x="316" y="825"/>
      <point x="300" y="825" type="curve" smooth="yes"/>
      <point x="284" y="825"/>
      <point x="264" y="827"/>
      <point x="248" y="831" type="curve"/>
      <point x="213" y="913" type="line"/>
      <point x="143" y="882" type="line"/>
      <point x="163" y="844" type="line" smooth="yes"/>
      <point x="188" y="797"/>
      <point x="228" y="766"/>
    </contour>
    <contour>
      <point x="301.0" y="698.0" type="move" name="_top"/>
    </contour>
  </outline>
</glyph>
