<?xml version="1.0" encoding="UTF-8"?>
<glyph name="Ohornacute" format="1">
  <advance width="642"/>
  <unicode hex="1EDA"/>
  <outline>
    <component base="Ohorn"/>
    <component base="acute.case" xOffset="41"/>
    <contour>
      <point x="321.0" y="0.0" type="move" name="bottom"/>
    </contour>
  </outline>
  <lib>
    <dict>
      <key>com.typemytype.robofont.mark</key>
      <array>
        <real>0.6</real>
        <real>0.986</real>
        <real>1.0</real>
        <real>1.0</real>
      </array>
    </dict>
  </lib>
</glyph>
