<?xml version="1.0" encoding="UTF-8"?>
<glyph name="iacute" format="1">
  <advance width="266"/>
  <unicode hex="00ED"/>
  <outline>
    <component base="dotlessi"/>
    <component base="acute" xOffset="-87"/>
    <contour>
      <point x="114.0" y="0.0" type="move" name="bottom"/>
    </contour>
    <contour>
      <point x="190.0" y="0.0" type="move" name="bottomright"/>
    </contour>
  </outline>
  <lib>
    <dict>
      <key>com.typemytype.robofont.mark</key>
      <array>
        <real>0.6</real>
        <real>0.986</real>
        <real>1.0</real>
        <real>1.0</real>
      </array>
    </dict>
  </lib>
</glyph>
