<?xml version="1.0" encoding="UTF-8"?>
<glyph name=".notdef" format="1">
  <advance width="424"/>
  <outline>
    <contour>
      <point x="32" y="0" type="line" name=""/>
      <point x="32" y="780" type="line"/>
      <point x="392" y="780" type="line"/>
      <point x="392" y="0" type="line"/>
    </contour>
    <contour>
      <point x="76" y="44" type="line"/>
      <point x="348" y="44" type="line"/>
      <point x="348" y="736" type="line"/>
      <point x="76" y="736" type="line"/>
    </contour>
  </outline>
</glyph>
