<?xml version="1.0" encoding="UTF-8"?>
<glyph name="ruble" format="1">
  <advance width="631"/>
  <unicode hex="20BD"/>
  <outline>
    <contour>
      <point x="60" y="0" type="line" name=""/>
      <point x="272" y="0" type="line"/>
      <point x="272" y="18" type="line"/>
      <point x="167" y="18" type="line"/>
      <point x="167" y="171" type="line"/>
      <point x="417" y="171" type="line"/>
      <point x="417" y="188" type="line"/>
      <point x="167" y="188" type="line"/>
      <point x="167" y="324" type="line"/>
      <point x="410" y="324" type="line" smooth="yes"/>
      <point x="524" y="324"/>
      <point x="586" y="397"/>
      <point x="586" y="511" type="curve" smooth="yes"/>
      <point x="586" y="625"/>
      <point x="524" y="698"/>
      <point x="410" y="698" type="curve" smooth="yes"/>
      <point x="60" y="698" type="line"/>
      <point x="60" y="680" type="line"/>
      <point x="145" y="680" type="line"/>
      <point x="145" y="342" type="line"/>
      <point x="50" y="342" type="line"/>
      <point x="50" y="324" type="line"/>
      <point x="145" y="324" type="line"/>
      <point x="145" y="188" type="line"/>
      <point x="50" y="188" type="line"/>
      <point x="50" y="171" type="line"/>
      <point x="145" y="171" type="line"/>
      <point x="145" y="18" type="line"/>
      <point x="60" y="18" type="line"/>
    </contour>
    <contour>
      <point x="167" y="680" type="line"/>
      <point x="410" y="680" type="line" smooth="yes"/>
      <point x="511" y="680"/>
      <point x="562" y="608"/>
      <point x="562" y="530" type="curve" smooth="yes"/>
      <point x="562" y="492" type="line" smooth="yes"/>
      <point x="562" y="414"/>
      <point x="511" y="342"/>
      <point x="410" y="342" type="curve" smooth="yes"/>
      <point x="167" y="342" type="line"/>
    </contour>
  </outline>
</glyph>
