<?xml version="1.0" encoding="UTF-8"?>
<glyph name="hahTahTwodotshorizontalabove-ar.medi" format="1">
  <advance width="672"/>
  <outline>
    <component base="hah-ar.medi"/>
    <component base="tahabove-ar" xOffset="109" yOffset="374"/>
    <component base="twodotshorizontalabove-ar" xOffset="116" yOffset="160"/>
    <contour>
      <point x="325.0" y="0.0" type="move" name="bottom"/>
    </contour>
    <contour>
      <point x="269.0" y="1023.0" type="move" name="top"/>
    </contour>
  </outline>
  <lib>
    <dict>
      <key>com.typemytype.robofont.mark</key>
      <array>
        <real>0.6</real>
        <real>0.986</real>
        <real>1.0</real>
        <real>1.0</real>
      </array>
    </dict>
  </lib>
</glyph>
