<?xml version="1.0" encoding="UTF-8"?>
<glyph name="lam_alef-ar.fina.rlig" format="1">
  <advance width="641"/>
  <unicode hex="FEFC"/>
  <outline>
    <contour>
      <point x="44" y="-30" type="line" name="hr00"/>
      <point x="278" y="25" type="line" smooth="yes"/>
      <point x="356" y="43"/>
      <point x="400" y="104"/>
      <point x="418" y="214" type="curve"/>
      <point x="424" y="214" type="line"/>
      <point x="424" y="204" type="line" smooth="yes"/>
      <point x="424" y="65"/>
      <point x="482" y="1"/>
      <point x="611" y="0" type="curve"/>
      <point x="641" y="30" type="line"/>
      <point x="641" y="150" type="line"/>
      <point x="601" y="150" type="line" smooth="yes"/>
      <point x="553" y="150"/>
      <point x="531" y="172"/>
      <point x="531" y="220" type="curve" smooth="yes"/>
      <point x="531" y="740" type="line"/>
      <point x="411" y="740" type="line"/>
      <point x="411" y="329" type="line" smooth="yes"/>
      <point x="411" y="248"/>
      <point x="385" y="214"/>
      <point x="289" y="184" type="curve"/>
      <point x="212" y="616" type="line"/>
      <point x="94" y="595" type="line"/>
      <point x="172" y="154" type="line"/>
      <point x="10" y="116" type="line"/>
    </contour>
    <contour>
      <point x="471.0" y="0.0" type="move" name="bottom_1"/>
    </contour>
    <contour>
      <point x="271.0" y="0.0" type="move" name="bottom_2"/>
    </contour>
    <contour>
      <point x="471.0" y="740.0" type="move" name="top_1"/>
    </contour>
    <contour>
      <point x="154.0" y="578.0" type="move" name="top_2"/>
    </contour>
  </outline>
</glyph>
