<?xml version="1.0" encoding="UTF-8"?>
<glyph name="OE" format="1">
  <advance width="1011"/>
  <unicode hex="0152"/>
  <outline>
    <contour>
      <point x="368" y="-12" type="curve" smooth="yes"/>
      <point x="403" y="-12"/>
      <point x="434" y="-8"/>
      <point x="462" y="0" type="curve" name=""/>
      <point x="951" y="0" type="line"/>
      <point x="951" y="177" type="line"/>
      <point x="879" y="177" type="line"/>
      <point x="879" y="49" type="line"/>
      <point x="586" y="49" type="line"/>
      <point x="586" y="335" type="line"/>
      <point x="784" y="335" type="line"/>
      <point x="784" y="255" type="line"/>
      <point x="844" y="255" type="line"/>
      <point x="844" y="464" type="line"/>
      <point x="784" y="464" type="line"/>
      <point x="784" y="384" type="line"/>
      <point x="586" y="384" type="line"/>
      <point x="586" y="649" type="line"/>
      <point x="869" y="649" type="line" name=""/>
      <point x="869" y="530" type="line"/>
      <point x="941" y="530" type="line"/>
      <point x="941" y="698" type="line"/>
      <point x="462" y="698" type="line"/>
      <point x="434" y="706"/>
      <point x="403" y="710"/>
      <point x="368" y="710" type="curve" smooth="yes" name=""/>
      <point x="169" y="710"/>
      <point x="50" y="572"/>
      <point x="50" y="349" type="curve" smooth="yes"/>
      <point x="50" y="126"/>
      <point x="169" y="-12"/>
    </contour>
    <contour>
      <point x="368" y="41" type="curve" smooth="yes"/>
      <point x="217" y="41"/>
      <point x="146" y="146"/>
      <point x="146" y="292" type="curve" smooth="yes"/>
      <point x="146" y="406" type="line" smooth="yes"/>
      <point x="146" y="552"/>
      <point x="219" y="657"/>
      <point x="368" y="657" type="curve" smooth="yes"/>
      <point x="423" y="657"/>
      <point x="470" y="645"/>
      <point x="500" y="622" type="curve"/>
      <point x="500" y="76" type="line"/>
      <point x="470" y="53"/>
      <point x="423" y="41"/>
    </contour>
    <contour>
      <point x="542.0" y="0.0" type="move" name="bottom"/>
    </contour>
    <contour>
      <point x="542.0" y="698.0" type="move" name="top"/>
    </contour>
  </outline>
</glyph>
