<?xml version="1.0" encoding="UTF-8"?>
<glyph name="uni0406" format="1">
  <advance width="346"/>
  <unicode hex="0406"/>
  <outline>
    <component base="I"/>
    <contour>
      <point x="173.0" y="0.0" type="move" name="bottom"/>
    </contour>
    <contour>
      <point x="291.0" y="0.0" type="move" name="bottomright"/>
    </contour>
    <contour>
      <point x="173.0" y="698.0" type="move" name="top"/>
    </contour>
  </outline>
  <lib>
    <dict>
      <key>com.typemytype.robofont.mark</key>
      <array>
        <real>0.6</real>
        <real>0.986</real>
        <real>1.0</real>
        <real>1.0</real>
      </array>
    </dict>
  </lib>
</glyph>
