<?xml version="1.0" encoding="UTF-8"?>
<glyph name="arrowdowncounterclockhalf" format="1">
  <advance width="900"/>
  <unicode hex="21B6"/>
  <outline>
    <contour>
      <point x="265" y="37" type="line" name=""/>
      <point x="504" y="276" type="line"/>
      <point x="424" y="356" type="line"/>
      <point x="364" y="296" type="line"/>
      <point x="326" y="252" type="line"/>
      <point x="322" y="253" type="line"/>
      <point x="326" y="333" type="line"/>
      <point x="326" y="346" type="line" smooth="yes"/>
      <point x="326" y="462"/>
      <point x="389" y="569"/>
      <point x="539" y="569" type="curve" smooth="yes"/>
      <point x="689" y="569"/>
      <point x="752" y="460"/>
      <point x="752" y="346" type="curve"/>
      <point x="874" y="346" type="line"/>
      <point x="874" y="528"/>
      <point x="762" y="683"/>
      <point x="539" y="683" type="curve" smooth="yes"/>
      <point x="316" y="683"/>
      <point x="204" y="528"/>
      <point x="204" y="346" type="curve"/>
      <point x="204" y="333" type="line"/>
      <point x="208" y="253" type="line"/>
      <point x="204" y="252" type="line"/>
      <point x="166" y="296" type="line"/>
      <point x="106" y="356" type="line"/>
      <point x="26" y="276" type="line"/>
    </contour>
  </outline>
</glyph>
