<?xml version="1.0" encoding="UTF-8"?>
<glyph name="scedilla" format="1">
  <advance width="504"/>
  <unicode hex="015F"/>
  <outline>
    <contour>
      <point x="262" y="-212" type="curve" smooth="yes"/>
      <point x="330" y="-212"/>
      <point x="394" y="-189"/>
      <point x="394" y="-121" type="curve" smooth="yes"/>
      <point x="394" y="-72"/>
      <point x="361" y="-52"/>
      <point x="321" y="-52" type="curve" smooth="yes"/>
      <point x="305" y="-52"/>
      <point x="289" y="-55"/>
      <point x="273" y="-59" type="curve"/>
      <point x="269" y="-55" type="line"/>
      <point x="278" y="-11" type="line"/>
      <point x="396" y="0"/>
      <point x="472" y="70"/>
      <point x="472" y="163" type="curve" smooth="yes" name=""/>
      <point x="472" y="254"/>
      <point x="413" y="306"/>
      <point x="299" y="321" type="curve" smooth="yes"/>
      <point x="240" y="329" type="line" smooth="yes"/>
      <point x="197" y="335"/>
      <point x="185" y="350"/>
      <point x="185" y="378" type="curve" smooth="yes"/>
      <point x="185" y="404"/>
      <point x="205" y="422"/>
      <point x="255" y="422" type="curve" smooth="yes"/>
      <point x="299" y="422"/>
      <point x="343" y="401"/>
      <point x="376" y="368" type="curve"/>
      <point x="461" y="455" type="line"/>
      <point x="408" y="507"/>
      <point x="357" y="537"/>
      <point x="247" y="537" type="curve" smooth="yes"/>
      <point x="122" y="537"/>
      <point x="43" y="467"/>
      <point x="43" y="366" type="curve" smooth="yes"/>
      <point x="43" y="271"/>
      <point x="101" y="219"/>
      <point x="220" y="204" type="curve" smooth="yes"/>
      <point x="277" y="197" type="line" smooth="yes"/>
      <point x="314" y="192"/>
      <point x="330" y="179"/>
      <point x="330" y="153" type="curve" smooth="yes"/>
      <point x="330" y="122"/>
      <point x="310" y="103"/>
      <point x="252" y="103" type="curve" smooth="yes"/>
      <point x="195" y="103"/>
      <point x="150" y="129"/>
      <point x="113" y="170" type="curve"/>
      <point x="26" y="82" type="line"/>
      <point x="73" y="29"/>
      <point x="130" y="-3"/>
      <point x="211" y="-10" type="curve"/>
      <point x="198" y="-74" type="line"/>
      <point x="219" y="-76" type="line" smooth="yes"/>
      <point x="281" y="-82"/>
      <point x="294" y="-101"/>
      <point x="294" y="-116" type="curve" smooth="yes" name=""/>
      <point x="294" y="-133"/>
      <point x="275" y="-141"/>
      <point x="250" y="-141" type="curve" smooth="yes"/>
      <point x="219" y="-141"/>
      <point x="197" y="-128"/>
      <point x="184" y="-112" type="curve"/>
      <point x="138" y="-168" type="line"/>
      <point x="155" y="-188"/>
      <point x="193" y="-212"/>
    </contour>
    <contour>
      <point x="250.0" y="540.0" type="move" name="top"/>
    </contour>
  </outline>
</glyph>
