<?xml version="1.0" encoding="UTF-8"?>
<glyph name="tilde.alt01.case" format="1">
  <advance width="593"/>
  <outline>
    <contour>
      <point x="375" y="786" type="curve" smooth="yes"/>
      <point x="416" y="786"/>
      <point x="446" y="811"/>
      <point x="468" y="838" type="curve"/>
      <point x="437" y="877" type="line"/>
      <point x="417" y="860"/>
      <point x="399" y="850"/>
      <point x="378" y="850" type="curve" smooth="yes"/>
      <point x="362" y="850"/>
      <point x="346" y="858"/>
      <point x="325" y="871" type="curve" smooth="yes"/>
      <point x="305" y="883"/>
      <point x="288" y="894"/>
      <point x="261" y="894" type="curve" smooth="yes" name=""/>
      <point x="220" y="894"/>
      <point x="190" y="869"/>
      <point x="168" y="842" type="curve"/>
      <point x="199" y="803" type="line"/>
      <point x="219" y="820"/>
      <point x="237" y="830"/>
      <point x="258" y="830" type="curve" smooth="yes"/>
      <point x="274" y="830"/>
      <point x="290" y="822"/>
      <point x="311" y="809" type="curve" smooth="yes"/>
      <point x="331" y="797"/>
      <point x="348" y="786"/>
    </contour>
    <contour>
      <point x="290.0" y="698.0" type="move" name="_top"/>
    </contour>
  </outline>
</glyph>
