<?xml version="1.0" encoding="UTF-8"?>
<glyph name="copyright" format="1">
  <advance width="798"/>
  <unicode hex="00A9"/>
  <outline>
    <contour>
      <point x="407" y="135" type="curve" smooth="yes" name=""/>
      <point x="505" y="135"/>
      <point x="557" y="202"/>
      <point x="577" y="256" type="curve"/>
      <point x="533" y="282" type="line"/>
      <point x="516" y="245"/>
      <point x="487" y="213"/>
      <point x="433" y="213" type="curve" smooth="yes"/>
      <point x="373" y="213"/>
      <point x="332" y="248"/>
      <point x="332" y="318" type="curve" smooth="yes"/>
      <point x="332" y="399" type="line" smooth="yes"/>
      <point x="332" y="470"/>
      <point x="370" y="512"/>
      <point x="433" y="512" type="curve" smooth="yes"/>
      <point x="458" y="512"/>
      <point x="472" y="508"/>
      <point x="482" y="504" type="curve"/>
      <point x="482" y="502" type="line"/>
      <point x="464" y="493"/>
      <point x="452" y="476"/>
      <point x="452" y="451" type="curve" smooth="yes"/>
      <point x="452" y="418"/>
      <point x="473" y="395"/>
      <point x="508" y="395" type="curve" smooth="yes"/>
      <point x="545" y="395"/>
      <point x="568" y="418"/>
      <point x="568" y="455" type="curve" smooth="yes"/>
      <point x="568" y="513"/>
      <point x="516" y="563"/>
      <point x="419" y="563" type="curve" smooth="yes"/>
      <point x="297" y="563"/>
      <point x="204" y="485"/>
      <point x="204" y="349" type="curve" smooth="yes"/>
      <point x="204" y="229"/>
      <point x="275" y="135"/>
    </contour>
    <contour>
      <point x="399" y="46" type="curve" smooth="yes"/>
      <point x="236" y="46"/>
      <point x="120" y="163"/>
      <point x="120" y="315" type="curve" smooth="yes"/>
      <point x="120" y="383" type="line" smooth="yes"/>
      <point x="120" y="535"/>
      <point x="236" y="652"/>
      <point x="399" y="652" type="curve" smooth="yes"/>
      <point x="562" y="652"/>
      <point x="678" y="535"/>
      <point x="678" y="383" type="curve" smooth="yes"/>
      <point x="678" y="315" type="line" smooth="yes"/>
      <point x="678" y="163"/>
      <point x="562" y="46"/>
    </contour>
    <contour>
      <point x="399" y="-12" type="curve" smooth="yes"/>
      <point x="601" y="-12"/>
      <point x="746" y="126"/>
      <point x="746" y="349" type="curve" smooth="yes"/>
      <point x="746" y="572"/>
      <point x="601" y="710"/>
      <point x="399" y="710" type="curve" smooth="yes"/>
      <point x="197" y="710"/>
      <point x="52" y="572"/>
      <point x="52" y="349" type="curve" smooth="yes"/>
      <point x="52" y="126"/>
      <point x="197" y="-12"/>
    </contour>
  </outline>
</glyph>
