<?xml version="1.0" encoding="UTF-8"?>
<glyph name="underscore" format="1">
  <advance width="559"/>
  <unicode hex="005F"/>
  <outline>
    <contour>
      <point x="454" y="-141" type="line" name=""/>
      <point x="458" y="-123" type="line"/>
      <point x="-51" y="-123" type="line"/>
      <point x="-55" y="-141" type="line"/>
    </contour>
  </outline>
</glyph>
