<?xml version="1.0" encoding="UTF-8"?>
<glyph name="h" format="1">
  <advance width="521"/>
  <unicode hex="0068"/>
  <outline>
    <contour>
      <point x="338" y="-12" type="curve" smooth="yes"/>
      <point x="352" y="-12"/>
      <point x="365" y="-5"/>
      <point x="400" y="28" type="curve" smooth="yes"/>
      <point x="489" y="111" type="line"/>
      <point x="482" y="119" type="line"/>
      <point x="347" y="6" type="line"/>
      <point x="329" y="14" type="line"/>
      <point x="438" y="425" type="line" smooth="yes"/>
      <point x="441" y="438"/>
      <point x="443" y="450"/>
      <point x="443" y="461" type="curve" smooth="yes"/>
      <point x="443" y="494"/>
      <point x="427" y="518"/>
      <point x="383" y="518" type="curve" smooth="yes"/>
      <point x="271" y="518"/>
      <point x="182" y="364"/>
      <point x="139" y="277" type="curve"/>
      <point x="134" y="278" type="line"/>
      <point x="254" y="754" type="line"/>
      <point x="144" y="743" type="line"/>
      <point x="142" y="732" type="line"/>
      <point x="227" y="732" type="line"/>
      <point x="44" y="0" type="line" name=""/>
      <point x="65" y="0" type="line"/>
      <point x="107" y="169" type="line" smooth="yes"/>
      <point x="130" y="263"/>
      <point x="207" y="386"/>
      <point x="272" y="448" type="curve" smooth="yes"/>
      <point x="309" y="483"/>
      <point x="343" y="500"/>
      <point x="377" y="500" type="curve" smooth="yes"/>
      <point x="408" y="500"/>
      <point x="422" y="485"/>
      <point x="422" y="458" type="curve" smooth="yes"/>
      <point x="422" y="449"/>
      <point x="420" y="438"/>
      <point x="417" y="425" type="curve" smooth="yes"/>
      <point x="314" y="40" type="line" smooth="yes"/>
      <point x="311" y="28"/>
      <point x="310" y="19"/>
      <point x="310" y="13" type="curve" smooth="yes"/>
      <point x="310" y="-8"/>
      <point x="327" y="-12"/>
    </contour>
    <contour>
      <point x="191.0" y="0.0" type="move" name="bottom"/>
    </contour>
    <contour>
      <point x="234.0" y="718.0" type="move" name="top"/>
    </contour>
  </outline>
</glyph>
