<?xml version="1.0" encoding="UTF-8"?>
<glyph name="o" format="1">
  <advance width="461"/>
  <unicode hex="006F"/>
  <outline>
    <contour>
      <point x="177" y="5" type="curve" name=""/>
      <point x="95" y="5"/>
      <point x="72" y="63"/>
      <point x="72" y="149" type="curve" smooth="yes"/>
      <point x="72" y="178"/>
      <point x="73" y="203"/>
      <point x="85" y="254" type="curve" smooth="yes"/>
      <point x="116" y="384"/>
      <point x="182" y="501"/>
      <point x="284" y="501" type="curve" smooth="yes"/>
      <point x="366" y="501"/>
      <point x="389" y="443"/>
      <point x="389" y="357" type="curve" smooth="yes"/>
      <point x="389" y="328"/>
      <point x="388" y="303"/>
      <point x="376" y="252" type="curve" smooth="yes"/>
      <point x="345" y="122"/>
      <point x="279" y="5"/>
    </contour>
    <contour>
      <point x="177" y="-12" type="curve" smooth="yes"/>
      <point x="309" y="-12"/>
      <point x="411" y="176"/>
      <point x="411" y="357" type="curve" smooth="yes"/>
      <point x="411" y="455"/>
      <point x="375" y="518"/>
      <point x="284" y="518" type="curve" smooth="yes"/>
      <point x="152" y="518"/>
      <point x="50" y="330"/>
      <point x="50" y="149" type="curve" smooth="yes"/>
      <point x="50" y="51"/>
      <point x="86" y="-12"/>
    </contour>
    <contour>
      <point x="175.0" y="0.0" type="move" name="bottom"/>
    </contour>
    <contour>
      <point x="287.0" y="540.0" type="move" name="top"/>
    </contour>
  </outline>
</glyph>
